[
    {
        "id": 1,
        "name": "DELL Latitude 3420 Laptop",
        "price": 909,
        "image": "./images/product_1.jpg",
        "sku": 21713168,
        "color": "black"
    },
    {
        "id": 2,
        "name": "DELL Latitude 7430 Laptop",
        "price": 1639,
        "image": "./images/product_2.jpg",
        "sku": 21712222,
        "color": "silver"
    },
    {
        "id": 3,
        "name": "DELL Latitude 5430 Laptop",
        "price": 1169,
        "image": "./images/product_3.jpg",
        "sku": 21712262,
        "color": "grey"
    },
    {
        "id": 4,
        "name": "DELL Inspiron 16 Laptop",
        "price": 849,
        "image": "./images/product_4.jpg",
        "sku": 21712123,
        "color": "grey"
    },
    {
        "id": 5,
        "name": "DELL Alienware x17 R2 Gaming Laptop",
        "price": 1999,
        "image": "./images/product_5.jpg",
        "sku": 217177896,
        "color": "black"
    },
    {
        "id": 6,
        "name": "DELL Alienware m15 R7 Gaming Laptop",
        "price": 1160,
        "image": "./images/product_6.jpg",
        "sku": 217171111,
        "color": "darkgrey"
    },
    {
        "id": 7,
        "name": "DELL Alienware x14 Gaming Laptop",
        "price": 999,
        "image": "./images/product_7.jpg",
        "sku": 345471111,
        "color": "white"
    },
    {
        "id": 8,
        "name": "DELL XPS 15 Laptop",
        "price": 1149,
        "image": "./images/product_8.jpg",
        "sku": 356567111,
        "color": "white"
    },
    {
        "id": 9,
        "name": "DELL XPS 13 2-in-1 Laptop",
        "price": 1569,
        "image": "./images/product_9.jpg",
        "sku": 111171111,
        "color": "blue"
    },
    {
        "id": 10,
        "name": "DELL New Inspiron 14 2-in-1 Laptop",
        "price": 799,
        "image": "./images/product_10.jpg",
        "sku": 777741111,
        "color": "silver"
    }
]